module gitlab.com/jbarseghian/s3-trigger-tutorial

go 1.20

require (
	github.com/aws/aws-lambda-go v1.46.0
	github.com/aws/aws-sdk-go-v2/config v1.27.10
	github.com/aws/aws-sdk-go-v2/service/s3 v1.53.1
)

require (
	github.com/aws/aws-sdk-go-v2 v1.26.1 // indirect
	github.com/aws/aws-sdk-go-v2/aws/protocol/eventstream v1.6.2 // indirect
	github.com/aws/aws-sdk-go-v2/credentials v1.17.10 // indirect
	github.com/aws/aws-sdk-go-v2/feature/ec2/imds v1.16.1 // indirect
	github.com/aws/aws-sdk-go-v2/internal/configsources v1.3.5 // indirect
	github.com/aws/aws-sdk-go-v2/internal/endpoints/v2 v2.6.5 // indirect
	github.com/aws/aws-sdk-go-v2/internal/ini v1.8.0 // indirect
	github.com/aws/aws-sdk-go-v2/internal/v4a v1.3.5 // indirect
	github.com/aws/aws-sdk-go-v2/service/internal/accept-encoding v1.11.2 // indirect
	github.com/aws/aws-sdk-go-v2/service/internal/checksum v1.3.7 // indirect
	github.com/aws/aws-sdk-go-v2/service/internal/presigned-url v1.11.7 // indirect
	github.com/aws/aws-sdk-go-v2/service/internal/s3shared v1.17.5 // indirect
	github.com/aws/aws-sdk-go-v2/service/sso v1.20.4 // indirect
	github.com/aws/aws-sdk-go-v2/service/ssooidc v1.23.4 // indirect
	github.com/aws/aws-sdk-go-v2/service/sts v1.28.6 // indirect
	github.com/aws/smithy-go v1.20.2 // indirect
)
